Quality,JPEG,ARCNN,MWCNN,IDCN,DMCNN,OURS
10,25.60/23.53/0.755,-,-,-,-,27.63/27.39/0.819
20,27.96/25.77/0.837,-,-,-,-,29.89/29.48/0.881
30,29.25/27.10/0.872,-,-,-,-,31.18/30.67/0.907
40,30.16/28.10/0.891,-,-,-,-,32.06/31.50/0.922
50,30.91/28.94/0.905,-,-,-,-,32.78/32.19/0.932
60,31.64/29.78/0.917,-,-,-,-,33.48/32.86/0.940
70,32.64/30.99/0.930,-,-,-,-,34.41/33.76/0.950
80,34.09/32.81/0.945,-,-,-,-,35.68/35.03/0.960
90,36.75/36.06/0.965,-,-,-,-,37.45/36.90/0.972
100,44.72/44.11/0.994,-,-,-,-,38.86/39.01/0.981
