Model Quality,Image Quality,JPEG,IDCN,OURS
10,50,30.91 / 28.94 / 0.905,30.19 / 30.14 / 0.889,\textbf{32.78 / 32.19 / 0.932}
20,50,30.91 / 28.94 / 0.905,31.91 / 31.65 / 0.916,\textbf{32.78 / 32.19 / 0.932}
10,20,27.96 / 25.77 / 0.837,29.25 / 29.08 / 0.863,\textbf{29.92 / 29.51 / 0.882}
20,10,25.60 / 23.53 / 0.755,26.95 / 26.24 / 0.804,\textbf{27.65 / 27.40 / 0.819}
